…
On the other hand, Thompson has the second highest median shooting distance Next, lets look at some data about their shooting types.

### 4) Action types

The following tables individually count the top five frequently used actions of each players.

``` r
action_types_kevin <- kevin %>% filter(shot_made_flag == "shot_yes") %>% select(name,action_type) %>% group_by(name)
count_kevin <- count(action_types_kevin, vars=action_type)
count_kevin <- arrange(count_kevin, desc(n))
count_kevin
```

    ## # A tibble: 38 x 3
    ## # Groups:   name [1]
    ##    name         vars                         n
    ##    <chr>        <chr>                    <int>
    ##  1 Kevin Durant Jump Shot                  112
    ##  2 Kevin Durant Pullup Jump shot            71
    ##  3 Kevin Durant Cutting Dunk Shot           29
    ##  4 Kevin Durant Driving Dunk Shot           26
    ##  5 Kevin Durant Fadeaway Jump Shot          26
    ##  6 Kevin Durant Driving Layup Shot          23
    ##  7 Kevin Durant Running Layup Shot          23
    ##  8 Kevin Durant Running Dunk Shot           20
    ##  9 Kevin Durant Layup Shot                  15
    ## 10 Kevin Durant Turnaround Fadeaway shot    15
    ## # ... with 28 more rows
…
